module gitlab.com/cyantarek/shophobe-grpc-tast

go 1.12

require (
	cloud.google.com/go v0.37.4 // indirect
	github.com/DataDog/zstd v1.4.0 // indirect
	github.com/Shopify/sarama v1.22.0 // indirect
	github.com/beorn7/perks v1.0.0 // indirect
	github.com/go-logfmt/logfmt v0.4.0 // indirect
	github.com/gogo/protobuf v1.2.1 // indirect
	github.com/golang/protobuf v1.3.1
	github.com/google/btree v1.0.0 // indirect
	github.com/google/pprof v0.0.0-20190404155422-f8f10df84213 // indirect
	github.com/gorilla/mux v1.7.1 // indirect
	github.com/hashicorp/golang-lru v0.5.1 // indirect
	github.com/kisielk/errcheck v1.2.0 // indirect
	github.com/konsorten/go-windows-terminal-sequences v1.0.2 // indirect
	github.com/mediocregopher/radix.v2 v0.0.0-20181115013041-b67df6e626f9
	github.com/onsi/ginkgo v1.8.0 // indirect
	github.com/onsi/gomega v1.5.0 // indirect
	github.com/pkg/errors v0.8.1 // indirect
	github.com/prometheus/client_model v0.0.0-20190129233127-fd36f4220a90 // indirect
	github.com/prometheus/common v0.3.0 // indirect
	github.com/prometheus/procfs v0.0.0-20190416084830-8368d24ba045 // indirect
	github.com/sirupsen/logrus v1.4.1 // indirect
	github.com/stretchr/objx v0.2.0 // indirect
	go.opencensus.io v0.20.2 // indirect
	golang.org/x/crypto v0.0.0-20190418165655-df01cb2cc480 // indirect
	golang.org/x/exp v0.0.0-20190419195159-b8972e603456 // indirect
	golang.org/x/image v0.0.0-20190417020941-4e30a6eb7d9a // indirect
	golang.org/x/lint v0.0.0-20190409202823-959b441ac422 // indirect
	golang.org/x/mobile v0.0.0-20190415191353-3e0bab5405d6 // indirect
	golang.org/x/net v0.0.0-20190420063019-afa5a82059c6 // indirect
	golang.org/x/oauth2 v0.0.0-20190402181905-9f3314589c9a // indirect
	golang.org/x/sync v0.0.0-20190412183630-56d357773e84 // indirect
	golang.org/x/sys v0.0.0-20190419153524-e8e3143a4f4a // indirect
	golang.org/x/time v0.0.0-20190308202827-9d24e82272b4 // indirect
	golang.org/x/tools v0.0.0-20190420181800-aa740d480789 // indirect
	google.golang.org/api v0.3.2 // indirect
	google.golang.org/appengine v1.5.0 // indirect
	google.golang.org/genproto v0.0.0-20190418145605-e7d98fc518a7 // indirect
	google.golang.org/grpc v1.20.1
	gopkg.in/check.v1 v1.0.0-20180628173108-788fd7840127 // indirect
	gopkg.in/evanphx/json-patch.v4 v4.1.0
	gopkg.in/yaml.v2 v2.2.2 // indirect
	honnef.co/go/tools v0.0.0-20190418001031-e561f6794a2a // indirect
)
